<svg viewBox="0 0 23 22" fill="none" xmlns="http://www.w3.org/2000/svg">
    <path d="M11.4653 6.02508L4.45722 13.0336V20.5977C4.45722 20.7936 4.5213 20.9814 4.63535 21.1199C4.7494 21.2584 4.90409 21.3362 5.06539 21.3362L9.32488 21.3228C9.48565 21.3218 9.63956 21.2436 9.75296 21.1052C9.86635 20.9668 9.93001 20.7795 9.93001 20.5843V16.1669C9.93001 15.9711 9.99408 15.7833 10.1081 15.6448C10.2222 15.5063 10.3769 15.4285 10.5382 15.4285H12.9709C13.1322 15.4285 13.2869 15.5063 13.4009 15.6448C13.515 15.7833 13.579 15.9711 13.579 16.1669V20.5811C13.5788 20.6783 13.5943 20.7745 13.6248 20.8644C13.6552 20.9543 13.7 21.0359 13.7565 21.1048C13.813 21.1736 13.8801 21.2282 13.954 21.2654C14.0279 21.3027 14.1072 21.3219 14.1872 21.3219L18.4452 21.3362C18.6065 21.3362 18.7612 21.2584 18.8752 21.1199C18.9893 20.9814 19.0534 20.7936 19.0534 20.5977V13.0285L12.0468 6.02508C11.9645 5.94447 11.8618 5.9005 11.756 5.9005C11.6502 5.9005 11.5476 5.94447 11.4653 6.02508ZM22.5351 10.7886L19.3574 7.60816V1.21539C19.3574 1.0685 19.3094 0.927629 19.2238 0.823763C19.1383 0.719896 19.0223 0.661545 18.9013 0.661545H16.7727C16.6517 0.661545 16.5357 0.719896 16.4502 0.823763C16.3646 0.927629 16.3166 1.0685 16.3166 1.21539V4.56662L12.9135 1.16693C12.5869 0.840612 12.1771 0.662197 11.7541 0.662197C11.3312 0.662197 10.9214 0.840612 10.5948 1.16693L0.973154 10.7886C0.926966 10.835 0.888753 10.8919 0.860698 10.9562C0.832643 11.0205 0.815296 11.0909 0.809648 11.1633C0.804 11.2358 0.810162 11.3088 0.827782 11.3784C0.845401 11.4479 0.874133 11.5126 0.912336 11.5686L1.88161 12.9994C1.91971 13.0556 1.96657 13.1022 2.01951 13.1365C2.07245 13.1707 2.13044 13.1919 2.19014 13.1989C2.24984 13.2059 2.3101 13.1985 2.36745 13.1772C2.4248 13.1559 2.47813 13.121 2.52437 13.0746L11.4653 4.13278C11.5476 4.05216 11.6502 4.00819 11.756 4.00819C11.8618 4.00819 11.9645 4.05216 12.0468 4.13278L20.9881 13.0746C21.0343 13.121 21.0875 13.1559 21.1448 13.1773C21.2021 13.1987 21.2622 13.2062 21.3219 13.1993C21.3815 13.1925 21.4395 13.1714 21.4925 13.1373C21.5454 13.1033 21.5923 13.0569 21.6305 13.0008L22.5998 11.57C22.6379 11.5136 22.6665 11.4487 22.6839 11.3788C22.7014 11.309 22.7072 11.2356 22.7012 11.163C22.6952 11.0904 22.6775 11.0199 22.649 10.9557C22.6204 10.8914 22.5818 10.8347 22.5351 10.7886Z" fill="#1F549F"/>
</svg>
